 [
    {
      "id": 990,
      "cnp": 1900517131234,
      "firstName": "Florin",
      "lastName": "Carol",
      "birthdate": "17 Mai 1990",
      "dateIn": "11 Noiembrie 2019",
      "department": "Chirurgie",
      "diagnostic": "Apendicita"
    },
    {
      "id": 991,
      "cnp": 1871011131782,
      "firstName": "Alexandru",
      "lastName": "Papadopol",
      "birthdate": "25 Octombrie 1987",
      "dateIn": "11 Iunie 2019",
      "department": "Radiologie",
      "diagnostic": "Fractura mana stanga"
    },
    {
      "id": 992,
      "cnp": 2920607131234,
      "firstName": "Alina",
      "lastName": "Marcopol",
      "birthdate": "07 Iunie 1992",
      "dateIn": "01 Martie 2019",
      "department": "Recuperare",
      "diagnostic": "Atrofiere musculara"
    },
    {
      "id": 993,
      "cnp": 1880322131234,
      "firstName": "Alexandru",
      "lastName": "Aldescu",
      "birthdate": "22 Martie 1988",
      "dateIn": "11 Aprilie 2018",
      "department": "Terapie Intensiva",
      "diagnostic": "Accident de masina"
    },
    {
      "id": 994,
      "cnp": 2970204131234,
      "firstName": "Iulia",
      "lastName": "Carol",
      "birthdate": "04 Februarie 1997",
      "dateIn": "11 Mai 2019",
      "department": "Cardiologie",
      "diagnostic": "Inima saltareata"
    }
  ]